[
  {
    "id": 3701212,
    "title": "Fox",
    "description": null,
    "width": 400,
    "height": 300,
    "images": {
      "hidpi": "https://cdn.dribbble.com/users/60166/screenshots/3701212/fox.jpg",
      "normal": "https://cdn.dribbble.com/users/60166/screenshots/3701212/fox_1x.jpg",
      "teaser": "https://cdn.dribbble.com/users/60166/screenshots/3701212/fox_teaser.jpg"
    },
    "views_count": 4759,
    "likes_count": 396,
    "comments_count": 16,
    "attachments_count": 0,
    "rebounds_count": 0,
    "buckets_count": 8,
    "created_at": "2017-08-01T05:27:00Z",
    "updated_at": "2017-08-01T05:30:00Z",
    "html_url": "https://dribbble.com/shots/3701212-Fox",
    "attachments_url": "https://api.dribbble.com/v1/shots/3701212/attachments",
    "buckets_url": "https://api.dribbble.com/v1/shots/3701212/buckets",
    "comments_url": "https://api.dribbble.com/v1/shots/3701212/comments",
    "likes_url": "https://api.dribbble.com/v1/shots/3701212/likes",
    "projects_url": "https://api.dribbble.com/v1/shots/3701212/projects",
    "rebounds_url": "https://api.dribbble.com/v1/shots/3701212/rebounds",
    "animated": false,
    "tags": [],
    "user": {
      "id": 60166,
      "name": "Yoga Perdana",
      "username": "yoga",
      "html_url": "https://dribbble.com/yoga",
      "avatar_url": "https://cdn.dribbble.com/users/60166/avatars/normal/yogaLogo.png?1390870645",
      "bio": "Illustrator &amp; Logo designer.  \nI work using digital tools, specially vector.\nContact me: yogaperdana7@gmail.com",
      "location": "Indonesia",
      "links": {
        "twitter": "https://twitter.com/yoga7"
      },
      "buckets_count": 1,
      "comments_received_count": 2223,
      "followers_count": 56202,
      "followings_count": 1457,
      "likes_count": 21301,
      "likes_received_count": 144316,
      "projects_count": 6,
      "rebounds_received_count": 71,
      "shots_count": 231,
      "teams_count": 0,
      "can_upload_shot": true,
      "type": "Player",
      "pro": true,
      "buckets_url": "https://api.dribbble.com/v1/users/60166/buckets",
      "followers_url": "https://api.dribbble.com/v1/users/60166/followers",
      "following_url": "https://api.dribbble.com/v1/users/60166/following",
      "likes_url": "https://api.dribbble.com/v1/users/60166/likes",
      "projects_url": "https://api.dribbble.com/v1/users/60166/projects",
      "shots_url": "https://api.dribbble.com/v1/users/60166/shots",
      "teams_url": "https://api.dribbble.com/v1/users/60166/teams",
      "created_at": "2011-09-07T11:10:00Z",
      "updated_at": "2017-08-02T01:58:45Z"
    },
    "team": null
  },
  {
    "id": 3702755,
    "title": "The Explorers Society Hotel",
    "description": "<p>After nearly a year of work, I finally get to show these logos from a hotel project we worked on up in Revelstoke BC. I will post more from this project soon!</p>",
    "width": 400,
    "height": 300,
    "images": {
      "hidpi": "https://cdn.dribbble.com/users/52084/screenshots/3702755/explorerz_logo.jpg",
      "normal": "https://cdn.dribbble.com/users/52084/screenshots/3702755/explorerz_logo_1x.jpg",
      "teaser": "https://cdn.dribbble.com/users/52084/screenshots/3702755/explorerz_logo_teaser.jpg"
    },
    "views_count": 2515,
    "likes_count": 296,
    "comments_count": 6,
    "attachments_count": 1,
    "rebounds_count": 0,
    "buckets_count": 8,
    "created_at": "2017-08-01T15:16:33Z",
    "updated_at": "2017-08-01T15:19:09Z",
    "html_url": "https://dribbble.com/shots/3702755-The-Explorers-Society-Hotel",
    "attachments_url": "https://api.dribbble.com/v1/shots/3702755/attachments",
    "buckets_url": "https://api.dribbble.com/v1/shots/3702755/buckets",
    "comments_url": "https://api.dribbble.com/v1/shots/3702755/comments",
    "likes_url": "https://api.dribbble.com/v1/shots/3702755/likes",
    "projects_url": "https://api.dribbble.com/v1/shots/3702755/projects",
    "rebounds_url": "https://api.dribbble.com/v1/shots/3702755/rebounds",
    "animated": false,
    "tags": [
      "badge",
      "branding",
      "canada",
      "explore",
      "hotel",
      "leaf",
      "lockup",
      "logo",
      "typography"
    ],
    "user": {
      "id": 52084,
      "name": "Steve Wolf",
      "username": "WOLF_STEVE",
      "html_url": "https://dribbble.com/WOLF_STEVE",
      "avatar_url": "https://cdn.dribbble.com/users/52084/avatars/normal/ef07fd4b5e3d27774b8c077cc61d26d8.jpg?1411136929",
      "bio": "",
      "location": "Austin, Texas",
      "links": {
        "web": "http://stevewolf.co/",
        "twitter": "https://twitter.com/STEVEWOLFDESIGN"
      },
      "buckets_count": 0,
      "comments_received_count": 1522,
      "followers_count": 20005,
      "followings_count": 882,
      "likes_count": 1731,
      "likes_received_count": 111443,
      "projects_count": 0,
      "rebounds_received_count": 17,
      "shots_count": 236,
      "teams_count": 1,
      "can_upload_shot": true,
      "type": "Player",
      "pro": true,
      "buckets_url": "https://api.dribbble.com/v1/users/52084/buckets",
      "followers_url": "https://api.dribbble.com/v1/users/52084/followers",
      "following_url": "https://api.dribbble.com/v1/users/52084/following",
      "likes_url": "https://api.dribbble.com/v1/users/52084/likes",
      "projects_url": "https://api.dribbble.com/v1/users/52084/projects",
      "shots_url": "https://api.dribbble.com/v1/users/52084/shots",
      "teams_url": "https://api.dribbble.com/v1/users/52084/teams",
      "created_at": "2011-08-10T19:36:38Z",
      "updated_at": "2017-08-02T02:08:58Z"
    },
    "team": null
  },
  {
    "id": 3703126,
    "title": "Magic, Dog, Ok",
    "description": "<p>Some prints from last week.</p>",
    "width": 400,
    "height": 300,
    "images": {
      "hidpi": "https://cdn.dribbble.com/users/3460/screenshots/3703126/magic-dog-ok.gif",
      "normal": "https://cdn.dribbble.com/users/3460/screenshots/3703126/magic-dog-ok_1x.gif",
      "teaser": "https://cdn.dribbble.com/users/3460/screenshots/3703126/magic-dog-ok_teaser.gif"
    },
    "views_count": 3801,
    "likes_count": 288,
    "comments_count": 7,
    "attachments_count": 0,
    "rebounds_count": 0,
    "buckets_count": 6,
    "created_at": "2017-08-01T17:06:03Z",
    "updated_at": "2017-08-01T17:06:52Z",
    "html_url": "https://dribbble.com/shots/3703126-Magic-Dog-Ok",
    "attachments_url": "https://api.dribbble.com/v1/shots/3703126/attachments",
    "buckets_url": "https://api.dribbble.com/v1/shots/3703126/buckets",
    "comments_url": "https://api.dribbble.com/v1/shots/3703126/comments",
    "likes_url": "https://api.dribbble.com/v1/shots/3703126/likes",
    "projects_url": "https://api.dribbble.com/v1/shots/3703126/projects",
    "rebounds_url": "https://api.dribbble.com/v1/shots/3703126/rebounds",
    "animated": true,
    "tags": [
      "dog",
      "gesture",
      "hands",
      "icon",
      "illustration",
      "magic",
      "print",
      "riso",
      "vector"
    ],
    "user": {
      "id": 3460,
      "name": "Ryan Putnam",
      "username": "RypeArts",
      "html_url": "https://dribbble.com/RypeArts",
      "avatar_url": "https://cdn.dribbble.com/users/3460/avatars/normal/4ed7a7a4737e971e3fa37f0705f5cc51.png?1457564367",
      "bio": "designer, illustrator, potter, and father",
      "location": "San Francisco, CA",
      "links": {
        "web": "http://ryanputn.am",
        "twitter": "https://twitter.com/RypeArts"
      },
      "buckets_count": 3,
      "comments_received_count": 10944,
      "followers_count": 72355,
      "followings_count": 555,
      "likes_count": 11375,
      "likes_received_count": 297426,
      "projects_count": 32,
      "rebounds_received_count": 457,
      "shots_count": 709,
      "teams_count": 1,
      "can_upload_shot": true,
      "type": "Player",
      "pro": true,
      "buckets_url": "https://api.dribbble.com/v1/users/3460/buckets",
      "followers_url": "https://api.dribbble.com/v1/users/3460/followers",
      "following_url": "https://api.dribbble.com/v1/users/3460/following",
      "likes_url": "https://api.dribbble.com/v1/users/3460/likes",
      "projects_url": "https://api.dribbble.com/v1/users/3460/projects",
      "shots_url": "https://api.dribbble.com/v1/users/3460/shots",
      "teams_url": "https://api.dribbble.com/v1/users/3460/teams",
      "created_at": "2010-07-16T12:48:16Z",
      "updated_at": "2017-08-02T01:54:16Z"
    },
    "team": null
  },
  {
    "id": 3702344,
    "title": "InVision – Design Education Illustrations",
    "description": "<p>Next week, the InVision team will share an incredibly exciting project we’ve been working on for quite a while. In building out the visual identity for this design education project, I focused on creating a unique set of illustrations to bring a portion of the content to life in a compelling way.</p>\n\n<p>As one of the newest members of the InVision design team, it was rewarding (and fun!) to work with the rest of the crew to bring our ideas to life. In addition to these illustrations, you’ll notice the owl brand mark in the bottom right corner—that was chosen because it represents ancient wisdom. And, we employed a custom typeface that symbolizes building blocks to drive the theme of ‘education’ home.</p>\n\n<p>We can’t wait to share this project with you, and hope you like this sneak peek in the meantime. Stay tuned—we go live next week!</p>",
    "width": 400,
    "height": 300,
    "images": {
      "hidpi": "https://cdn.dribbble.com/users/77628/screenshots/3702344/design_better_illustration_gif_v6.gif",
      "normal": "https://cdn.dribbble.com/users/77628/screenshots/3702344/design_better_illustration_gif_v6_1x.gif",
      "teaser": "https://cdn.dribbble.com/users/77628/screenshots/3702344/design_better_illustration_gif_v6_teaser.gif"
    },
    "views_count": 4557,
    "likes_count": 291,
    "comments_count": 16,
    "attachments_count": 0,
    "rebounds_count": 0,
    "buckets_count": 16,
    "created_at": "2017-08-01T13:07:27Z",
    "updated_at": "2017-08-01T13:14:16Z",
    "html_url": "https://dribbble.com/shots/3702344-InVision-Design-Education-Illustrations",
    "attachments_url": "https://api.dribbble.com/v1/shots/3702344/attachments",
    "buckets_url": "https://api.dribbble.com/v1/shots/3702344/buckets",
    "comments_url": "https://api.dribbble.com/v1/shots/3702344/comments",
    "likes_url": "https://api.dribbble.com/v1/shots/3702344/likes",
    "projects_url": "https://api.dribbble.com/v1/shots/3702344/projects",
    "rebounds_url": "https://api.dribbble.com/v1/shots/3702344/rebounds",
    "animated": true,
    "tags": [
      "brand",
      "identity",
      "illustration",
      "logo",
      "marque",
      "product illustration",
      "prototyping",
      "ui",
      "ux"
    ],
    "user": {
      "id": 77628,
      "name": "Jack Daly",
      "username": "jack-daly",
      "html_url": "https://dribbble.com/jack-daly",
      "avatar_url": "https://cdn.dribbble.com/users/77628/avatars/normal/24d324b7a86d49c333f7d795d291cd09.jpg?1427722094",
      "bio": "Design + Illustration + Art Direction",
      "location": "Glasgow",
      "links": {
        "web": "http://www.behance.net/jackdaly",
        "twitter": "https://twitter.com/jack_fff"
      },
      "buckets_count": 0,
      "comments_received_count": 120,
      "followers_count": 1127,
      "followings_count": 4,
      "likes_count": 5,
      "likes_received_count": 3176,
      "projects_count": 0,
      "rebounds_received_count": 0,
      "shots_count": 35,
      "teams_count": 1,
      "can_upload_shot": true,
      "type": "Player",
      "pro": true,
      "buckets_url": "https://api.dribbble.com/v1/users/77628/buckets",
      "followers_url": "https://api.dribbble.com/v1/users/77628/followers",
      "following_url": "https://api.dribbble.com/v1/users/77628/following",
      "likes_url": "https://api.dribbble.com/v1/users/77628/likes",
      "projects_url": "https://api.dribbble.com/v1/users/77628/projects",
      "shots_url": "https://api.dribbble.com/v1/users/77628/shots",
      "teams_url": "https://api.dribbble.com/v1/users/77628/teams",
      "created_at": "2011-11-22T14:05:38Z",
      "updated_at": "2017-08-02T01:54:55Z"
    },
    "team": {
      "id": 50942,
      "name": "InVision",
      "username": "InVisionApp",
      "html_url": "https://dribbble.com/InVisionApp",
      "avatar_url": "https://cdn.dribbble.com/users/50942/avatars/normal/bb4685dbe9de3d043ccef3293247a579.png?1493296205",
      "bio": "Design better experiences with InVision, a prototyping, collaboration, and workflow platform.",
      "location": "New York, NY",
      "links": {
        "web": "http://www.InVisionApp.com",
        "twitter": "https://twitter.com/InVisionApp"
      },
      "buckets_count": 0,
      "comments_received_count": 353,
      "followers_count": 31088,
      "followings_count": 1012,
      "likes_count": 270,
      "likes_received_count": 1126,
      "projects_count": 2,
      "rebounds_received_count": 19,
      "shots_count": 197,
      "can_upload_shot": true,
      "type": "Team",
      "pro": false,
      "buckets_url": "https://api.dribbble.com/v1/users/50942/buckets",
      "followers_url": "https://api.dribbble.com/v1/users/50942/followers",
      "following_url": "https://api.dribbble.com/v1/users/50942/following",
      "likes_url": "https://api.dribbble.com/v1/users/50942/likes",
      "projects_url": "https://api.dribbble.com/v1/users/50942/projects",
      "shots_url": "https://api.dribbble.com/v1/users/50942/shots",
      "created_at": "2011-08-05T20:04:14Z",
      "updated_at": "2017-08-02T01:57:37Z",
      "members_count": 25,
      "members_url": "https://api.dribbble.com/v1/teams/50942/members",
      "team_shots_url": "https://api.dribbble.com/v1/teams/50942/shots"
    }
  },
  {
    "id": 3702935,
    "title": "River City Secondary Marks And Seals Exploration",
    "description": "<p>A bunch of secondary marks, icons and seals I made to support @Justin Belcher 's main word mark and water tower icon. Will show how we used all these in the coming days! Part of a branding project for a coworking (typo used to say cowering) space in Danville, VA. </p>",
    "width": 400,
    "height": 300,
    "images": {
      "hidpi": "https://cdn.dribbble.com/users/64052/screenshots/3702935/river-city-secondary-marks-and-seals-exploration.png",
      "normal": "https://cdn.dribbble.com/users/64052/screenshots/3702935/river-city-secondary-marks-and-seals-exploration_1x.png",
      "teaser": "https://cdn.dribbble.com/users/64052/screenshots/3702935/river-city-secondary-marks-and-seals-exploration_teaser.png"
    },
    "views_count": 2121,
    "likes_count": 268,
    "comments_count": 14,
    "attachments_count": 0,
    "rebounds_count": 0,
    "buckets_count": 17,
    "created_at": "2017-08-01T16:06:33Z",
    "updated_at": "2017-08-01T16:32:08Z",
    "html_url": "https://dribbble.com/shots/3702935-River-City-Secondary-Marks-And-Seals-Exploration",
    "attachments_url": "https://api.dribbble.com/v1/shots/3702935/attachments",
    "buckets_url": "https://api.dribbble.com/v1/shots/3702935/buckets",
    "comments_url": "https://api.dribbble.com/v1/shots/3702935/comments",
    "likes_url": "https://api.dribbble.com/v1/shots/3702935/likes",
    "projects_url": "https://api.dribbble.com/v1/shots/3702935/projects",
    "rebounds_url": "https://api.dribbble.com/v1/shots/3702935/rebounds",
    "animated": false,
    "tags": [
      "branding",
      "city",
      "emblem",
      "hoodzpah",
      "icon",
      "identity",
      "logo",
      "mark",
      "retro",
      "river",
      "script",
      "seal"
    ],
    "user": {
      "id": 64052,
      "name": "Jennifer Hood",
      "username": "jenhood",
      "html_url": "https://dribbble.com/jenhood",
      "avatar_url": "https://cdn.dribbble.com/users/64052/avatars/normal/f1593d9bed3ae2c1b98b82339566909e.jpg?1498151068",
      "bio": "Mildly tortured designer. Co-founder of Hoodzpah, a branding firm, and Odds and Sods, an goods line of unnecessary necessaries.",
      "location": "Orange County, CA",
      "links": {
        "web": "http://hoodzpahdesign.com",
        "twitter": "https://twitter.com/inthegoodhood"
      },
      "buckets_count": 1,
      "comments_received_count": 1321,
      "followers_count": 3963,
      "followings_count": 505,
      "likes_count": 2105,
      "likes_received_count": 22220,
      "projects_count": 0,
      "rebounds_received_count": 8,
      "shots_count": 244,
      "teams_count": 1,
      "can_upload_shot": true,
      "type": "Player",
      "pro": false,
      "buckets_url": "https://api.dribbble.com/v1/users/64052/buckets",
      "followers_url": "https://api.dribbble.com/v1/users/64052/followers",
      "following_url": "https://api.dribbble.com/v1/users/64052/following",
      "likes_url": "https://api.dribbble.com/v1/users/64052/likes",
      "projects_url": "https://api.dribbble.com/v1/users/64052/projects",
      "shots_url": "https://api.dribbble.com/v1/users/64052/shots",
      "teams_url": "https://api.dribbble.com/v1/users/64052/teams",
      "created_at": "2011-09-25T03:16:21Z",
      "updated_at": "2017-08-02T01:55:12Z"
    },
    "team": {
      "id": 463835,
      "name": "Hoodzpah",
      "username": "Hoodzpah",
      "html_url": "https://dribbble.com/Hoodzpah",
      "avatar_url": "https://cdn.dribbble.com/users/463835/avatars/normal/Hoodzpah_Diamond_2.jpg?1387407927",
      "bio": "Hoodzpah Design is a boutique branding firm specializing in bold, unapologetic design across print and web. ",
      "location": "Orange County",
      "links": {
        "web": "http://www.hoodzpahdesign.com",
        "twitter": "https://twitter.com/get_hoodzpah"
      },
      "buckets_count": 1,
      "comments_received_count": 25,
      "followers_count": 4683,
      "followings_count": 58,
      "likes_count": 94,
      "likes_received_count": 357,
      "projects_count": 9,
      "rebounds_received_count": 64,
      "shots_count": 457,
      "can_upload_shot": true,
      "type": "Team",
      "pro": false,
      "buckets_url": "https://api.dribbble.com/v1/users/463835/buckets",
      "followers_url": "https://api.dribbble.com/v1/users/463835/followers",
      "following_url": "https://api.dribbble.com/v1/users/463835/following",
      "likes_url": "https://api.dribbble.com/v1/users/463835/likes",
      "projects_url": "https://api.dribbble.com/v1/users/463835/projects",
      "shots_url": "https://api.dribbble.com/v1/users/463835/shots",
      "created_at": "2013-12-18T21:51:52Z",
      "updated_at": "2017-08-02T01:55:05Z",
      "members_count": 6,
      "members_url": "https://api.dribbble.com/v1/teams/463835/members",
      "team_shots_url": "https://api.dribbble.com/v1/teams/463835/shots"
    }
  },
  {
    "id": 3701347,
    "title": "Best Icons Of The Month",
    "description": "<p>As I do every month, I collected the best icons to give you this essential pinch of inspiration and keep the fire inside of you burning. Take a peek into these different styles and unique approaches towards icon design! It’s always a great pleasure to discover them. I’m pretty sure that you will find some fantastic icon designers and icon sets amongst the ones I selected for you this time.</p>\n\n<p><strong>Stay inspired, stay curious:</strong>\n<br />➜ <a href=\"http://iconutopia.com/best-icons-of-the-month-july-2017/\" rel=\"nofollow noreferrer\">Best Icons of the Month! (July)</a> ✌</p>",
    "width": 400,
    "height": 300,
    "images": {
      "hidpi": "https://cdn.dribbble.com/users/146798/screenshots/3701347/best_icons_of_the_month.png",
      "normal": "https://cdn.dribbble.com/users/146798/screenshots/3701347/best_icons_of_the_month_1x.png",
      "teaser": "https://cdn.dribbble.com/users/146798/screenshots/3701347/best_icons_of_the_month_teaser.png"
    },
    "views_count": 3436,
    "likes_count": 282,
    "comments_count": 7,
    "attachments_count": 0,
    "rebounds_count": 0,
    "buckets_count": 7,
    "created_at": "2017-08-01T06:50:24Z",
    "updated_at": "2017-08-01T06:50:43Z",
    "html_url": "https://dribbble.com/shots/3701347-Best-Icons-Of-The-Month",
    "attachments_url": "https://api.dribbble.com/v1/shots/3701347/attachments",
    "buckets_url": "https://api.dribbble.com/v1/shots/3701347/buckets",
    "comments_url": "https://api.dribbble.com/v1/shots/3701347/comments",
    "likes_url": "https://api.dribbble.com/v1/shots/3701347/likes",
    "projects_url": "https://api.dribbble.com/v1/shots/3701347/projects",
    "rebounds_url": "https://api.dribbble.com/v1/shots/3701347/rebounds",
    "rebound_source_url": "https://api.dribbble.com/v1/shots/3626951",
    "animated": false,
    "tags": [
      "clouds",
      "cosmos",
      "discover",
      "galaxy",
      "icon",
      "illustration",
      "moon",
      "observatory",
      "outline",
      "space",
      "stars",
      "telescope"
    ],
    "user": {
      "id": 146798,
      "name": "Justas Galaburda",
      "username": "jucha",
      "html_url": "https://dribbble.com/jucha",
      "avatar_url": "https://cdn.dribbble.com/users/146798/avatars/normal/a1d1a5664926d64d14591bb092417f10.png?1441204660",
      "bio": "The Iconist. Founder of <a href=\"http://www.iconutopia.com\" rel=\"nofollow noreferrer\">www.iconutopia.com</a>, co-founder and designer at <a href=\"http://www.oberlo.com\" rel=\"nofollow noreferrer\">www.oberlo.com</a>",
      "location": "Lithuania",
      "links": {
        "web": "http://www.iconutopia.com",
        "twitter": "https://twitter.com/IconUtopia"
      },
      "buckets_count": 4,
      "comments_received_count": 3626,
      "followers_count": 20815,
      "followings_count": 913,
      "likes_count": 16719,
      "likes_received_count": 106217,
      "projects_count": 9,
      "rebounds_received_count": 375,
      "shots_count": 366,
      "teams_count": 0,
      "can_upload_shot": true,
      "type": "Player",
      "pro": true,
      "buckets_url": "https://api.dribbble.com/v1/users/146798/buckets",
      "followers_url": "https://api.dribbble.com/v1/users/146798/followers",
      "following_url": "https://api.dribbble.com/v1/users/146798/following",
      "likes_url": "https://api.dribbble.com/v1/users/146798/likes",
      "projects_url": "https://api.dribbble.com/v1/users/146798/projects",
      "shots_url": "https://api.dribbble.com/v1/users/146798/shots",
      "teams_url": "https://api.dribbble.com/v1/users/146798/teams",
      "created_at": "2012-05-13T20:51:05Z",
      "updated_at": "2017-08-02T02:09:34Z"
    },
    "team": null
  },
  {
    "id": 3700829,
    "title": "Heroik Headers",
    "description": "<p>Check out the attachments, there are few versions of a header.</p>\n\n<p>Which one would you prefer? 🤔</p>",
    "width": 400,
    "height": 300,
    "images": {
      "hidpi": "https://cdn.dribbble.com/users/135634/screenshots/3700829/heroik-header.png",
      "normal": "https://cdn.dribbble.com/users/135634/screenshots/3700829/heroik-header_1x.png",
      "teaser": "https://cdn.dribbble.com/users/135634/screenshots/3700829/heroik-header_teaser.png"
    },
    "views_count": 4387,
    "likes_count": 277,
    "comments_count": 17,
    "attachments_count": 5,
    "rebounds_count": 0,
    "buckets_count": 25,
    "created_at": "2017-08-01T00:50:08Z",
    "updated_at": "2017-08-01T04:03:45Z",
    "html_url": "https://dribbble.com/shots/3700829-Heroik-Headers",
    "attachments_url": "https://api.dribbble.com/v1/shots/3700829/attachments",
    "buckets_url": "https://api.dribbble.com/v1/shots/3700829/buckets",
    "comments_url": "https://api.dribbble.com/v1/shots/3700829/comments",
    "likes_url": "https://api.dribbble.com/v1/shots/3700829/likes",
    "projects_url": "https://api.dribbble.com/v1/shots/3700829/projects",
    "rebounds_url": "https://api.dribbble.com/v1/shots/3700829/rebounds",
    "rebound_source_url": "https://api.dribbble.com/v1/shots/3694599",
    "animated": false,
    "tags": [
      "cover",
      "header",
      "image",
      "landing page",
      "web design",
      "website design"
    ],
    "user": {
      "id": 135634,
      "name": "Norde",
      "username": "norde",
      "html_url": "https://dribbble.com/norde",
      "avatar_url": "https://cdn.dribbble.com/users/135634/avatars/normal/2278a1c672a9ed37f91ee6df158ec94e.png?1500409122",
      "bio": "We are Norde, a digital agency. We help startups and companies build and launch their next product. Work inquiries: hello@norde.st",
      "location": "Tel Aviv",
      "links": {},
      "buckets_count": 0,
      "comments_received_count": 888,
      "followers_count": 14434,
      "followings_count": 863,
      "likes_count": 296,
      "likes_received_count": 41913,
      "projects_count": 16,
      "rebounds_received_count": 54,
      "shots_count": 339,
      "can_upload_shot": true,
      "type": "Team",
      "pro": false,
      "buckets_url": "https://api.dribbble.com/v1/users/135634/buckets",
      "followers_url": "https://api.dribbble.com/v1/users/135634/followers",
      "following_url": "https://api.dribbble.com/v1/users/135634/following",
      "likes_url": "https://api.dribbble.com/v1/users/135634/likes",
      "projects_url": "https://api.dribbble.com/v1/users/135634/projects",
      "shots_url": "https://api.dribbble.com/v1/users/135634/shots",
      "created_at": "2012-04-20T22:46:41Z",
      "updated_at": "2017-08-02T01:19:02Z",
      "members_count": 3,
      "members_url": "https://api.dribbble.com/v1/teams/135634/members",
      "team_shots_url": "https://api.dribbble.com/v1/teams/135634/shots"
    },
    "team": {
      "id": 135634,
      "name": "Norde",
      "username": "norde",
      "html_url": "https://dribbble.com/norde",
      "avatar_url": "https://cdn.dribbble.com/users/135634/avatars/normal/2278a1c672a9ed37f91ee6df158ec94e.png?1500409122",
      "bio": "We are Norde, a digital agency. We help startups and companies build and launch their next product. Work inquiries: hello@norde.st",
      "location": "Tel Aviv",
      "links": {},
      "buckets_count": 0,
      "comments_received_count": 888,
      "followers_count": 14434,
      "followings_count": 863,
      "likes_count": 296,
      "likes_received_count": 41913,
      "projects_count": 16,
      "rebounds_received_count": 54,
      "shots_count": 339,
      "can_upload_shot": true,
      "type": "Team",
      "pro": false,
      "buckets_url": "https://api.dribbble.com/v1/users/135634/buckets",
      "followers_url": "https://api.dribbble.com/v1/users/135634/followers",
      "following_url": "https://api.dribbble.com/v1/users/135634/following",
      "likes_url": "https://api.dribbble.com/v1/users/135634/likes",
      "projects_url": "https://api.dribbble.com/v1/users/135634/projects",
      "shots_url": "https://api.dribbble.com/v1/users/135634/shots",
      "created_at": "2012-04-20T22:46:41Z",
      "updated_at": "2017-08-02T01:19:02Z",
      "members_count": 3,
      "members_url": "https://api.dribbble.com/v1/teams/135634/members",
      "team_shots_url": "https://api.dribbble.com/v1/teams/135634/shots"
    }
  },
  {
    "id": 3702200,
    "title": "dashX - Resourcing",
    "description": "<p>Hello, people of Tuesday!</p>\n\n<p>You know that problem most project managers have when they have a big team working on multiple projects... and you have several people jumping from one project to another, don't know what the status is and things get sloppy and messy and... well dashX could finally put an end to it. Very excited to try it out once it gets built :)</p>\n\n<p>Press ♥ for l’amour and catch ya’s later!\n<br />--\n<br />Looking to work with our creative team? Email <a href=\"mailto:kreativa@kreativa-studio.hr\" rel=\"nofollow noreferrer\"><a href=\"mailto:kreativa@kreativa-studio.hr\" rel=\"noreferrer\">kreativa@kreativa-studio.hr</a></a>.</p>\n\n<p><a href=\"https://www.behance.net/kreativastudio\" rel=\"nofollow noreferrer\">Behance</a> - <a href=\"https://www.facebook.com/pages/Kreativa-Studio/121917858691\" rel=\"nofollow noreferrer\">Facebook</a> - <a href=\"https://twitter.com/KreativaStudio\" rel=\"nofollow noreferrer\">Twitter</a></p>",
    "width": 400,
    "height": 300,
    "images": {
      "hidpi": "https://cdn.dribbble.com/users/34556/screenshots/3702200/resourcing.jpg",
      "normal": "https://cdn.dribbble.com/users/34556/screenshots/3702200/resourcing_1x.jpg",
      "teaser": "https://cdn.dribbble.com/users/34556/screenshots/3702200/resourcing_teaser.jpg"
    },
    "views_count": 4039,
    "likes_count": 288,
    "comments_count": 7,
    "attachments_count": 1,
    "rebounds_count": 0,
    "buckets_count": 48,
    "created_at": "2017-08-01T12:20:16Z",
    "updated_at": "2017-08-01T13:12:23Z",
    "html_url": "https://dribbble.com/shots/3702200-dashX-Resourcing",
    "attachments_url": "https://api.dribbble.com/v1/shots/3702200/attachments",
    "buckets_url": "https://api.dribbble.com/v1/shots/3702200/buckets",
    "comments_url": "https://api.dribbble.com/v1/shots/3702200/comments",
    "likes_url": "https://api.dribbble.com/v1/shots/3702200/likes",
    "projects_url": "https://api.dribbble.com/v1/shots/3702200/projects",
    "rebounds_url": "https://api.dribbble.com/v1/shots/3702200/rebounds",
    "animated": false,
    "tags": [
      "accounting",
      "dashboard",
      "dashx",
      "income",
      "invoice",
      "payroll",
      "project management",
      "resourcing",
      "time tracking"
    ],
    "user": {
      "id": 34556,
      "name": "KREATIVA Studio",
      "username": "KreativaStudio",
      "html_url": "https://dribbble.com/KreativaStudio",
      "avatar_url": "https://cdn.dribbble.com/users/34556/avatars/normal/2a404905edf96f18e4f3807fa48dc96c.jpeg?1459495978",
      "bio": "A forward thinking studio founded in 2008. Our team consists of talented good people that are in search of progress and ways to break boundaries.",
      "location": "Europe / Croatia",
      "links": {
        "web": "http://www.kreativa-studio.com",
        "twitter": "https://twitter.com/KreativaStudio"
      },
      "buckets_count": 12,
      "comments_received_count": 2652,
      "followers_count": 25002,
      "followings_count": 819,
      "likes_count": 2591,
      "likes_received_count": 69113,
      "projects_count": 29,
      "rebounds_received_count": 68,
      "shots_count": 187,
      "can_upload_shot": true,
      "type": "Team",
      "pro": false,
      "buckets_url": "https://api.dribbble.com/v1/users/34556/buckets",
      "followers_url": "https://api.dribbble.com/v1/users/34556/followers",
      "following_url": "https://api.dribbble.com/v1/users/34556/following",
      "likes_url": "https://api.dribbble.com/v1/users/34556/likes",
      "projects_url": "https://api.dribbble.com/v1/users/34556/projects",
      "shots_url": "https://api.dribbble.com/v1/users/34556/shots",
      "created_at": "2011-05-12T11:52:58Z",
      "updated_at": "2017-08-02T02:07:30Z",
      "members_count": 5,
      "members_url": "https://api.dribbble.com/v1/teams/34556/members",
      "team_shots_url": "https://api.dribbble.com/v1/teams/34556/shots"
    },
    "team": {
      "id": 34556,
      "name": "KREATIVA Studio",
      "username": "KreativaStudio",
      "html_url": "https://dribbble.com/KreativaStudio",
      "avatar_url": "https://cdn.dribbble.com/users/34556/avatars/normal/2a404905edf96f18e4f3807fa48dc96c.jpeg?1459495978",
      "bio": "A forward thinking studio founded in 2008. Our team consists of talented good people that are in search of progress and ways to break boundaries.",
      "location": "Europe / Croatia",
      "links": {
        "web": "http://www.kreativa-studio.com",
        "twitter": "https://twitter.com/KreativaStudio"
      },
      "buckets_count": 12,
      "comments_received_count": 2652,
      "followers_count": 25002,
      "followings_count": 819,
      "likes_count": 2591,
      "likes_received_count": 69113,
      "projects_count": 29,
      "rebounds_received_count": 68,
      "shots_count": 187,
      "can_upload_shot": true,
      "type": "Team",
      "pro": false,
      "buckets_url": "https://api.dribbble.com/v1/users/34556/buckets",
      "followers_url": "https://api.dribbble.com/v1/users/34556/followers",
      "following_url": "https://api.dribbble.com/v1/users/34556/following",
      "likes_url": "https://api.dribbble.com/v1/users/34556/likes",
      "projects_url": "https://api.dribbble.com/v1/users/34556/projects",
      "shots_url": "https://api.dribbble.com/v1/users/34556/shots",
      "created_at": "2011-05-12T11:52:58Z",
      "updated_at": "2017-08-02T02:07:30Z",
      "members_count": 5,
      "members_url": "https://api.dribbble.com/v1/teams/34556/members",
      "team_shots_url": "https://api.dribbble.com/v1/teams/34556/shots"
    }
  },
  {
    "id": 3697445,
    "title": "HelloVRP - Homepage",
    "description": "<p>Concept for a new HelloVRP website, designed this Spring as a part of our design proposal for Yuecheng Media.</p>\n\n<p>Unfortunately they chose a different agency later in the process.</p>\n\n<p>PS: Still one of favorite designs recently tho.. 😍</p>\n\n<p>—\n<br /><a href=\"http://instagram.com/alesnesetril\" rel=\"nofollow noreferrer\">Instagram</a></p>",
    "width": 400,
    "height": 300,
    "images": {
      "hidpi": "https://cdn.dribbble.com/users/29393/screenshots/3697445/03-test-50fps-1lossy.gif",
      "normal": "https://cdn.dribbble.com/users/29393/screenshots/3697445/03-test-50fps-1lossy_1x.gif",
      "teaser": "https://cdn.dribbble.com/users/29393/screenshots/3697445/03-test-50fps-1lossy_teaser.gif"
    },
    "views_count": 4258,
    "likes_count": 266,
    "comments_count": 13,
    "attachments_count": 2,
    "rebounds_count": 0,
    "buckets_count": 30,
    "created_at": "2017-07-30T18:56:47Z",
    "updated_at": "2017-08-01T08:01:22Z",
    "html_url": "https://dribbble.com/shots/3697445-HelloVRP-Homepage",
    "attachments_url": "https://api.dribbble.com/v1/shots/3697445/attachments",
    "buckets_url": "https://api.dribbble.com/v1/shots/3697445/buckets",
    "comments_url": "https://api.dribbble.com/v1/shots/3697445/comments",
    "likes_url": "https://api.dribbble.com/v1/shots/3697445/likes",
    "projects_url": "https://api.dribbble.com/v1/shots/3697445/projects",
    "rebounds_url": "https://api.dribbble.com/v1/shots/3697445/rebounds",
    "animated": true,
    "tags": [
      "angle",
      "cinema",
      "concept",
      "landing page",
      "parallax",
      "parallax effect",
      "principle",
      "strv",
      "video background",
      "virtual reality",
      "vr"
    ],
    "user": {
      "id": 29393,
      "name": "Ales Nesetril",
      "username": "alesnesetril",
      "html_url": "https://dribbble.com/alesnesetril",
      "avatar_url": "https://cdn.dribbble.com/users/29393/avatars/normal/d0263c40d2ab6af8b5fdccb080b4f387.png?1478948855",
      "bio": "Creative Director at STRV — hello@alesnesetril.com",
      "location": "Prague, Czech Republic",
      "links": {
        "web": "http://www.alesnesetril.com",
        "twitter": "https://twitter.com/alesnesetril"
      },
      "buckets_count": 0,
      "comments_received_count": 1381,
      "followers_count": 6729,
      "followings_count": 949,
      "likes_count": 2598,
      "likes_received_count": 27590,
      "projects_count": 16,
      "rebounds_received_count": 50,
      "shots_count": 189,
      "teams_count": 1,
      "can_upload_shot": true,
      "type": "Player",
      "pro": true,
      "buckets_url": "https://api.dribbble.com/v1/users/29393/buckets",
      "followers_url": "https://api.dribbble.com/v1/users/29393/followers",
      "following_url": "https://api.dribbble.com/v1/users/29393/following",
      "likes_url": "https://api.dribbble.com/v1/users/29393/likes",
      "projects_url": "https://api.dribbble.com/v1/users/29393/projects",
      "shots_url": "https://api.dribbble.com/v1/users/29393/shots",
      "teams_url": "https://api.dribbble.com/v1/users/29393/teams",
      "created_at": "2011-04-19T22:01:06Z",
      "updated_at": "2017-08-02T00:37:24Z"
    },
    "team": {
      "id": 605537,
      "name": "STRV",
      "username": "strvcom",
      "html_url": "https://dribbble.com/strvcom",
      "avatar_url": "https://cdn.dribbble.com/users/605537/avatars/normal/ff1e8e9135d72ae2ec25ac2ee110acd3.png?1474284342",
      "bio": "We are a dev shop that delivers awesome mobile experience for top US startups.",
      "location": "San Francisco, CA",
      "links": {
        "web": "http://www.strv.com",
        "twitter": "https://twitter.com/strvcom"
      },
      "buckets_count": 0,
      "comments_received_count": 64,
      "followers_count": 3606,
      "followings_count": 52,
      "likes_count": 13,
      "likes_received_count": 2988,
      "projects_count": 4,
      "rebounds_received_count": 23,
      "shots_count": 191,
      "can_upload_shot": true,
      "type": "Team",
      "pro": false,
      "buckets_url": "https://api.dribbble.com/v1/users/605537/buckets",
      "followers_url": "https://api.dribbble.com/v1/users/605537/followers",
      "following_url": "https://api.dribbble.com/v1/users/605537/following",
      "likes_url": "https://api.dribbble.com/v1/users/605537/likes",
      "projects_url": "https://api.dribbble.com/v1/users/605537/projects",
      "shots_url": "https://api.dribbble.com/v1/users/605537/shots",
      "created_at": "2014-06-30T21:07:58Z",
      "updated_at": "2017-08-01T21:32:08Z",
      "members_count": 13,
      "members_url": "https://api.dribbble.com/v1/teams/605537/members",
      "team_shots_url": "https://api.dribbble.com/v1/teams/605537/shots"
    }
  },
  {
    "id": 3700831,
    "title": "FF",
    "description": "<p>close-up deets of my last FF post</p>",
    "width": 400,
    "height": 300,
    "images": {
      "hidpi": "https://cdn.dribbble.com/users/407255/screenshots/3700831/ff_drib2.jpg",
      "normal": "https://cdn.dribbble.com/users/407255/screenshots/3700831/ff_drib2_1x.jpg",
      "teaser": "https://cdn.dribbble.com/users/407255/screenshots/3700831/ff_drib2_teaser.jpg"
    },
    "views_count": 1657,
    "likes_count": 241,
    "comments_count": 8,
    "attachments_count": 0,
    "rebounds_count": 0,
    "buckets_count": 6,
    "created_at": "2017-08-01T00:51:44Z",
    "updated_at": "2017-08-01T14:30:02Z",
    "html_url": "https://dribbble.com/shots/3700831-FF",
    "attachments_url": "https://api.dribbble.com/v1/shots/3700831/attachments",
    "buckets_url": "https://api.dribbble.com/v1/shots/3700831/buckets",
    "comments_url": "https://api.dribbble.com/v1/shots/3700831/comments",
    "likes_url": "https://api.dribbble.com/v1/shots/3700831/likes",
    "projects_url": "https://api.dribbble.com/v1/shots/3700831/projects",
    "rebounds_url": "https://api.dribbble.com/v1/shots/3700831/rebounds",
    "rebound_source_url": "https://api.dribbble.com/v1/shots/3689403",
    "animated": false,
    "tags": [
      "album",
      "fleet foxes",
      "floral",
      "flowers",
      "illustration",
      "music",
      "poster",
      "type"
    ],
    "user": {
      "id": 407255,
      "name": "Bailey Sullivan",
      "username": "bailz",
      "html_url": "https://dribbble.com/bailz",
      "avatar_url": "https://cdn.dribbble.com/users/407255/avatars/normal/e8c880d77843afb86235521ea83de13a.jpg?1467859457",
      "bio": "brooklyn • illustrator ",
      "location": "New York City",
      "links": {
        "web": "http://baileysullivan.com",
        "twitter": "https://twitter.com/bailz_"
      },
      "buckets_count": 0,
      "comments_received_count": 566,
      "followers_count": 4112,
      "followings_count": 411,
      "likes_count": 3754,
      "likes_received_count": 19093,
      "projects_count": 0,
      "rebounds_received_count": 23,
      "shots_count": 91,
      "teams_count": 0,
      "can_upload_shot": true,
      "type": "Player",
      "pro": true,
      "buckets_url": "https://api.dribbble.com/v1/users/407255/buckets",
      "followers_url": "https://api.dribbble.com/v1/users/407255/followers",
      "following_url": "https://api.dribbble.com/v1/users/407255/following",
      "likes_url": "https://api.dribbble.com/v1/users/407255/likes",
      "projects_url": "https://api.dribbble.com/v1/users/407255/projects",
      "shots_url": "https://api.dribbble.com/v1/users/407255/shots",
      "teams_url": "https://api.dribbble.com/v1/users/407255/teams",
      "created_at": "2013-09-21T03:04:57Z",
      "updated_at": "2017-08-02T01:57:33Z"
    },
    "team": null
  },
  {
    "id": 3695009,
    "title": "Ueno Project Grid",
    "description": "<p>At Ueno, we are proud of every project we make. Therefore, we decided to create a case study for each and every one of them. You can find all of them at <a href=\"https://ueno.co/work\" rel=\"nofollow noreferrer\">ueno.co/work</a>. Keep your eyes open, because we're continuously adding more!</p>\n\n<p>–– \n<br />Stay in the loop and sign up for our newsletter: <a href=\"https://ueno.co/newsletter\" rel=\"nofollow noreferrer\">ueno.co/newsletter</a></p>",
    "width": 400,
    "height": 300,
    "images": {
      "hidpi": "https://cdn.dribbble.com/users/40433/screenshots/3695009/projectgrid_02.gif",
      "normal": "https://cdn.dribbble.com/users/40433/screenshots/3695009/projectgrid_02_1x.gif",
      "teaser": "https://cdn.dribbble.com/users/40433/screenshots/3695009/projectgrid_02_teaser.gif"
    },
    "views_count": 5148,
    "likes_count": 217,
    "comments_count": 6,
    "attachments_count": 0,
    "rebounds_count": 0,
    "buckets_count": 3,
    "created_at": "2017-07-28T22:43:10Z",
    "updated_at": "2017-08-01T10:30:02Z",
    "html_url": "https://dribbble.com/shots/3695009-Ueno-Project-Grid",
    "attachments_url": "https://api.dribbble.com/v1/shots/3695009/attachments",
    "buckets_url": "https://api.dribbble.com/v1/shots/3695009/buckets",
    "comments_url": "https://api.dribbble.com/v1/shots/3695009/comments",
    "likes_url": "https://api.dribbble.com/v1/shots/3695009/likes",
    "projects_url": "https://api.dribbble.com/v1/shots/3695009/projects",
    "rebounds_url": "https://api.dribbble.com/v1/shots/3695009/rebounds",
    "animated": true,
    "tags": [
      "agency",
      "animation",
      "colorful",
      "grid",
      "images",
      "photos",
      "portfolio",
      "projects",
      "video",
      "work"
    ],
    "user": {
      "id": 40433,
      "name": "ueno.",
      "username": "ueno",
      "html_url": "https://dribbble.com/ueno",
      "avatar_url": "https://cdn.dribbble.com/users/40433/avatars/normal/41b86a77ca368dd4a969397ef39ba9a6.png?1472167036",
      "bio": "Digital Agency in SF, NY, LA and Iceland. Clients include Google, Reuters, Facebook, Uber, ESPN, Red Bull, Samsung, Airbnb, Lonely Planet, Verizon &amp; Dropbox. ",
      "location": "San Francisco, CA",
      "links": {
        "web": "http://www.ueno.co",
        "twitter": "https://twitter.com/uenodotco"
      },
      "buckets_count": 0,
      "comments_received_count": 3900,
      "followers_count": 63687,
      "followings_count": 529,
      "likes_count": 690,
      "likes_received_count": 144537,
      "projects_count": 38,
      "rebounds_received_count": 29,
      "shots_count": 366,
      "can_upload_shot": true,
      "type": "Team",
      "pro": false,
      "buckets_url": "https://api.dribbble.com/v1/users/40433/buckets",
      "followers_url": "https://api.dribbble.com/v1/users/40433/followers",
      "following_url": "https://api.dribbble.com/v1/users/40433/following",
      "likes_url": "https://api.dribbble.com/v1/users/40433/likes",
      "projects_url": "https://api.dribbble.com/v1/users/40433/projects",
      "shots_url": "https://api.dribbble.com/v1/users/40433/shots",
      "created_at": "2011-06-14T01:42:09Z",
      "updated_at": "2017-08-02T01:58:12Z",
      "members_count": 29,
      "members_url": "https://api.dribbble.com/v1/teams/40433/members",
      "team_shots_url": "https://api.dribbble.com/v1/teams/40433/shots"
    },
    "team": {
      "id": 40433,
      "name": "ueno.",
      "username": "ueno",
      "html_url": "https://dribbble.com/ueno",
      "avatar_url": "https://cdn.dribbble.com/users/40433/avatars/normal/41b86a77ca368dd4a969397ef39ba9a6.png?1472167036",
      "bio": "Digital Agency in SF, NY, LA and Iceland. Clients include Google, Reuters, Facebook, Uber, ESPN, Red Bull, Samsung, Airbnb, Lonely Planet, Verizon &amp; Dropbox. ",
      "location": "San Francisco, CA",
      "links": {
        "web": "http://www.ueno.co",
        "twitter": "https://twitter.com/uenodotco"
      },
      "buckets_count": 0,
      "comments_received_count": 3900,
      "followers_count": 63687,
      "followings_count": 529,
      "likes_count": 690,
      "likes_received_count": 144537,
      "projects_count": 38,
      "rebounds_received_count": 29,
      "shots_count": 366,
      "can_upload_shot": true,
      "type": "Team",
      "pro": false,
      "buckets_url": "https://api.dribbble.com/v1/users/40433/buckets",
      "followers_url": "https://api.dribbble.com/v1/users/40433/followers",
      "following_url": "https://api.dribbble.com/v1/users/40433/following",
      "likes_url": "https://api.dribbble.com/v1/users/40433/likes",
      "projects_url": "https://api.dribbble.com/v1/users/40433/projects",
      "shots_url": "https://api.dribbble.com/v1/users/40433/shots",
      "created_at": "2011-06-14T01:42:09Z",
      "updated_at": "2017-08-02T01:58:12Z",
      "members_count": 29,
      "members_url": "https://api.dribbble.com/v1/teams/40433/members",
      "team_shots_url": "https://api.dribbble.com/v1/teams/40433/shots"
    }
  },
  {
    "id": 3701619,
    "title": "Drink well, have well • Tea 🍵",
    "description": "<p>I LOVE CHAI TEA 💖 GIVE ME NOW. </p>\n\n<p>The title is derived from a Chinese proverb 善有善报 (shàn yǒu shàn bào) - do well and have well. This came about from talking with my friend about these proverbs and this one just stuck. To me it means that whatever you do in this life to other people, whether it is good or bad, the same will return to you. And to play on this proverb I explored the aspect of different drinks as they can affect your emotions and sometimes your actions. </p>\n\n<p>More to come soon!</p>\n\n<p>For more goodies / progress:\n<br /><a href=\"https://www.instagram.com/maryanne.made/\" rel=\"noreferrer\">https://www.instagram.com/maryanne.made/</a></p>\n\n<p></p>",
    "width": 400,
    "height": 300,
    "images": {
      "hidpi": "https://cdn.dribbble.com/users/747805/screenshots/3701619/teadribbble.jpg",
      "normal": "https://cdn.dribbble.com/users/747805/screenshots/3701619/teadribbble_1x.jpg",
      "teaser": "https://cdn.dribbble.com/users/747805/screenshots/3701619/teadribbble_teaser.jpg"
    },
    "views_count": 2092,
    "likes_count": 226,
    "comments_count": 10,
    "attachments_count": 0,
    "rebounds_count": 0,
    "buckets_count": 9,
    "created_at": "2017-08-01T08:38:15Z",
    "updated_at": "2017-08-01T12:47:34Z",
    "html_url": "https://dribbble.com/shots/3701619-Drink-well-have-well-Tea",
    "attachments_url": "https://api.dribbble.com/v1/shots/3701619/attachments",
    "buckets_url": "https://api.dribbble.com/v1/shots/3701619/buckets",
    "comments_url": "https://api.dribbble.com/v1/shots/3701619/comments",
    "likes_url": "https://api.dribbble.com/v1/shots/3701619/likes",
    "projects_url": "https://api.dribbble.com/v1/shots/3701619/projects",
    "rebounds_url": "https://api.dribbble.com/v1/shots/3701619/rebounds",
    "animated": false,
    "tags": [
      "cat",
      "character",
      "drinks",
      "floral",
      "icons",
      "illustration",
      "relax",
      "series",
      "tea",
      "texture",
      "vector",
      "wip"
    ],
    "user": {
      "id": 747805,
      "name": "maryanne",
      "username": "maryannemade",
      "html_url": "https://dribbble.com/maryannemade",
      "avatar_url": "https://cdn.dribbble.com/users/747805/avatars/normal/fdfb471b0882248f059acfc53908c576.png?1494400661",
      "bio": "illustrator • designer • moonlighter •\nvisual designer at <a href=\"https://dribbble.com/atlassian\">@atlassian</a> and i&#39;m trying to build my chilli tolerance 🔥",
      "location": "Sydney, Australia",
      "links": {
        "web": "http://www.maryannemade.com",
        "twitter": "https://twitter.com/maryannemade"
      },
      "buckets_count": 0,
      "comments_received_count": 265,
      "followers_count": 3492,
      "followings_count": 127,
      "likes_count": 1436,
      "likes_received_count": 13333,
      "projects_count": 7,
      "rebounds_received_count": 13,
      "shots_count": 99,
      "teams_count": 1,
      "can_upload_shot": true,
      "type": "Player",
      "pro": false,
      "buckets_url": "https://api.dribbble.com/v1/users/747805/buckets",
      "followers_url": "https://api.dribbble.com/v1/users/747805/followers",
      "following_url": "https://api.dribbble.com/v1/users/747805/following",
      "likes_url": "https://api.dribbble.com/v1/users/747805/likes",
      "projects_url": "https://api.dribbble.com/v1/users/747805/projects",
      "shots_url": "https://api.dribbble.com/v1/users/747805/shots",
      "teams_url": "https://api.dribbble.com/v1/users/747805/teams",
      "created_at": "2015-01-29T04:21:32Z",
      "updated_at": "2017-08-02T02:00:58Z"
    },
    "team": null
  }
]